<?xml version="1.0" standalone="no"?>
<!DOCTYPE svg PUBLIC "-//W3C//DTD SVG 20010904//EN"
 "http://www.w3.org/TR/2001/REC-SVG-20010904/DTD/svg10.dtd">
<svg version="1.0" xmlns="http://www.w3.org/2000/svg"
 width="1080.000000pt" height="1080.000000pt" viewBox="0 0 1080.000000 1080.000000"
 preserveAspectRatio="xMidYMid meet">
<metadata>
Created by potrace 1.11, written by Peter Selinger 2001-2013
</metadata>
<g transform="translate(0.000000,1080.000000) scale(0.100000,-0.100000)"
fill="#000000" stroke="none">
<path d="M525 10768 c41 -209 117 -378 217 -484 37 -39 64 -75 60 -79 -4 -5
-1 -5 6 -1 7 4 25 -3 42 -17 16 -14 54 -39 85 -57 30 -17 55 -37 55 -44 0 -26
-107 -172 -179 -245 -94 -95 -189 -162 -306 -216 -99 -46 -277 -98 -400 -116
-44 -6 -86 -13 -92 -15 -10 -3 -13 -81 -13 -349 l0 -346 102 -137 c90 -120
156 -205 366 -466 26 -33 76 -94 112 -135 36 -42 98 -115 138 -163 l74 -87
-13 -38 c-14 -46 -80 -171 -122 -233 -70 -104 -201 -216 -344 -297 -55 -31
-58 -43 -14 -43 14 0 32 -4 39 -9 28 -17 -132 -69 -242 -78 l-80 -6 45 -40
c47 -42 208 -151 274 -185 91 -47 226 -98 370 -139 82 -23 118 -40 203 -96
100 -66 250 -147 271 -147 13 0 14 18 1 93 -23 142 -31 343 -20 512 18 287 18
292 49 300 41 10 250 100 311 134 30 17 58 31 63 31 4 0 7 -27 7 -60 0 -34 5
-104 11 -156 6 -53 8 -98 6 -100 -2 -3 -17 15 -32 38 -43 65 -116 138 -137
138 -26 0 -41 -16 -72 -78 -66 -129 -104 -362 -87 -517 15 -126 33 -148 56
-68 18 61 24 67 46 47 23 -21 31 -51 74 -264 46 -231 49 -260 27 -260 -9 0
-26 7 -36 15 -32 24 -46 18 -46 -19 0 -50 17 -89 98 -226 100 -169 168 -259
209 -276 19 -8 68 -14 118 -14 50 0 99 -6 118 -14 41 -17 106 -90 143 -160 16
-30 30 -54 31 -52 1 1 -4 24 -13 51 -8 28 -21 91 -29 140 -34 210 -95 370
-211 556 -79 127 -115 234 -104 314 5 39 6 39 13 11 4 -15 29 -74 56 -130 26
-55 74 -160 106 -233 33 -73 60 -131 61 -130 3 3 13 138 14 182 1 38 3 36 57
-73 31 -62 58 -111 59 -109 2 2 -5 86 -16 188 -23 227 -44 641 -37 729 3 36
17 106 31 155 25 95 64 207 65 190 1 -5 10 -64 21 -130 30 -185 59 -291 136
-487 21 -55 39 -64 30 -15 -34 181 -54 625 -37 807 15 155 47 344 58 347 5 2
108 71 228 155 121 83 294 201 385 263 91 61 194 131 230 156 93 64 99 66 60
24 -81 -88 -224 -207 -328 -274 -85 -54 -50 -49 65 10 90 46 347 207 363 228
6 7 80 64 97 74 31 19 18 -16 -27 -73 -59 -72 -44 -56 -189 -204 -62 -64 -109
-116 -104 -116 31 0 536 362 683 490 30 26 78 67 106 91 28 24 99 89 158 143
58 54 107 97 109 95 8 -14 38 -70 127 -232 l101 -184 14 -154 c53 -558 75
-676 155 -828 24 -46 24 -28 0 84 -30 134 -44 306 -35 442 l7 117 46 -114 c25
-63 106 -236 179 -383 73 -148 149 -307 169 -355 41 -99 114 -316 114 -340 0
-12 3 -13 11 -5 6 6 9 39 7 82 -1 39 -2 71 -1 71 1 0 33 -64 71 -142 106 -216
164 -300 249 -359 58 -41 68 -36 37 16 -19 33 -28 65 -32 113 -2 37 -1 64 2
60 4 -3 29 -39 54 -80 62 -96 114 -169 119 -164 3 2 -5 51 -16 108 -82 412
-89 788 -19 1008 42 130 95 236 174 345 l79 110 7 -50 c42 -306 53 -356 97
-440 l26 -50 7 164 c6 143 15 233 35 335 4 23 11 8 33 -80 31 -123 80 -284 87
-284 2 0 1 93 -3 208 -11 345 19 832 67 1074 24 117 32 130 127 193 l42 28 91
-22 c119 -27 339 -97 361 -113 10 -7 41 -60 71 -118 117 -228 165 -310 289
-494 49 -72 197 -259 278 -351 115 -131 280 -298 287 -291 3 3 -8 24 -25 48
-16 24 -45 68 -64 98 -19 30 -43 69 -54 85 -23 36 -21 34 -111 187 -112 193
-293 571 -280 585 4 4 53 -29 187 -124 41 -29 116 -81 165 -116 241 -169 487
-348 824 -601 l214 -160 -6 -180 c-14 -375 -76 -773 -192 -1226 -17 -70 -20
-90 -9 -75 39 53 184 303 254 441 l78 153 13 -72 c20 -107 17 -324 -5 -427
-22 -105 -77 -271 -122 -369 -19 -41 -32 -76 -30 -78 6 -6 43 14 83 44 34 26
157 219 263 413 82 149 108 188 114 169 30 -93 8 -152 -165 -445 -140 -237
-187 -353 -204 -502 l-7 -63 46 35 c60 46 103 53 175 31 112 -34 111 -34 154
37 21 35 63 104 94 153 134 215 238 468 250 605 5 60 3 67 -20 88 -14 14 -43
26 -67 29 l-42 6 6 101 c13 190 44 341 75 360 8 5 58 -67 75 -109 2 -5 12 -2
22 7 17 16 17 27 6 170 -7 84 -21 198 -32 253 -19 96 -21 101 -65 142 -31 28
-45 49 -45 67 l0 25 41 -15 c23 -8 100 -28 170 -45 l129 -32 0 -206 c0 -415
-29 -657 -111 -945 -62 -214 -165 -461 -261 -619 -34 -56 -39 -70 -27 -78 30
-19 302 -2 447 27 138 28 433 138 415 154 -5 4 -33 12 -64 19 -73 15 -164 60
-217 106 -41 36 -122 180 -122 217 0 9 26 29 63 48 84 44 196 122 247 173 23
23 68 80 100 127 38 57 78 101 116 130 138 104 193 159 292 289 20 26 202 154
270 190 30 16 24 21 -35 32 -165 31 -279 150 -530 550 l-33 51 0 283 0 283 58
29 c101 52 235 140 310 204 90 75 151 156 182 240 13 35 37 78 52 94 l28 30
-2 413 -3 413 -100 38 c-153 58 -233 111 -365 241 -157 155 -320 387 -431 613
l-33 67 -4674 0 -4674 0 7 -32z"/>
<path d="M9944 10755 c87 -56 257 -144 358 -184 85 -34 265 -74 310 -69 26 3
24 5 -29 33 -73 37 -215 130 -314 207 l-76 58 -159 0 -159 0 69 -45z"/>
<path d="M1248 6315 c-3 -6 -13 -46 -23 -90 -26 -121 -80 -292 -116 -369 -55
-117 -127 -172 -278 -210 -50 -12 -93 -25 -96 -28 -9 -8 222 -103 370 -153
196 -66 313 -87 487 -89 136 -1 177 5 153 22 -17 12 -154 226 -238 372 -61
105 -223 457 -249 540 -2 7 -7 10 -10 5z"/>
<path d="M9013 5455 c-63 -95 -170 -231 -240 -306 -53 -56 -206 -176 -246
-193 -30 -12 164 -145 256 -175 84 -27 193 -35 309 -22 101 11 268 58 214 60
-16 1 -48 12 -71 26 -108 63 -151 188 -161 467 -2 76 -6 143 -9 150 -2 7 -5
23 -7 35 -2 18 -11 10 -45 -42z"/>
<path d="M2025 4951 c-9 -144 -38 -283 -75 -357 -44 -91 -105 -140 -235 -189
-32 -12 55 -36 156 -42 102 -7 168 10 278 68 85 46 213 143 285 218 l50 51
-54 122 c-29 68 -60 140 -69 161 -16 37 -17 37 -56 30 -75 -15 -173 -6 -225
19 l-48 24 -7 -105z"/>
<path d="M8450 4930 c-8 -5 -32 -10 -52 -10 -29 0 -38 -5 -44 -22 -4 -13 -20
-52 -37 -88 -69 -149 -217 -484 -217 -491 0 -10 157 -97 230 -127 92 -38 163
-52 267 -52 55 0 103 3 106 7 4 3 -3 14 -16 22 -45 30 -93 77 -114 112 -44 70
-77 262 -89 517 -4 78 -9 142 -13 142 -3 0 -13 -5 -21 -10z"/>
<path d="M2651 4251 c-14 -133 -33 -208 -72 -286 -30 -57 -127 -195 -139 -195
-3 0 -11 -10 -19 -22 l-13 -21 81 6 c83 7 173 26 251 55 42 15 214 112 234
132 5 5 -19 42 -56 87 -74 90 -122 155 -200 270 l-55 82 -12 -108z"/>
<path d="M7996 4181 c-22 -31 -84 -121 -138 -201 -107 -155 -124 -177 -112
-145 7 20 2 17 -62 -41 -6 -5 -35 -30 -65 -55 -29 -24 -71 -60 -93 -80 -48
-42 -341 -280 -406 -329 -25 -19 -47 -37 -50 -40 -10 -11 -296 -226 -415 -312
-442 -316 -840 -547 -1130 -653 -95 -35 -105 -37 -190 -32 -49 3 -117 13 -150
21 -143 39 -463 196 -718 353 -150 93 -452 319 -638 477 -20 17 -62 54 -95 81
-107 91 -248 217 -374 334 -285 266 -293 273 -322 314 -11 14 -13 -5 -13 -120
-1 -153 -14 -202 -78 -299 -45 -69 -177 -205 -191 -197 -6 3 -8 3 -4 -2 4 -4
-7 -19 -25 -33 l-32 -24 120 5 c104 5 133 11 218 41 106 39 129 43 145 24 6
-7 20 -114 32 -238 12 -124 25 -238 28 -253 l7 -28 43 32 c25 18 47 28 52 23
5 -5 31 -58 58 -119 27 -60 65 -144 84 -185 19 -41 102 -221 184 -398 81 -178
150 -320 152 -314 1 5 -34 152 -78 328 -44 175 -83 330 -86 344 -4 17 1 11 16
-15 50 -91 125 -221 132 -230 5 -5 28 -40 51 -76 24 -36 68 -99 98 -140 48
-64 80 -103 204 -247 78 -91 291 -252 505 -382 123 -74 436 -285 581 -390 49
-35 74 -37 132 -10 57 27 79 47 247 230 79 85 344 355 590 600 273 273 469
476 505 526 33 44 70 94 82 110 l22 29 0 -115 c1 -74 -8 -174 -24 -280 -26
-170 -30 -214 -15 -170 30 90 137 400 183 530 65 186 93 250 106 250 27 0 138
-164 222 -327 l57 -111 6 86 c16 227 39 414 67 549 41 199 150 687 154 692 2
2 18 -13 35 -33 33 -37 286 -174 298 -160 4 4 1 9 -6 11 -21 8 -104 82 -135
122 -43 53 -64 99 -76 166 -9 49 -8 62 4 82 17 26 27 30 19 8 -4 -9 1 -17 12
-21 11 -4 37 -15 59 -25 22 -9 69 -23 105 -29 131 -25 234 -53 302 -82 39 -16
72 -27 74 -25 2 2 -13 16 -35 31 -21 15 -52 42 -68 59 -79 87 -87 117 -103
372 -6 93 -14 175 -18 181 -4 7 -22 -10 -46 -45z"/>
<path d="M7503 1394 c-81 -42 -154 -81 -162 -87 -16 -14 -10 -171 15 -407 l16
-145 -67 -355 c-36 -195 -69 -365 -72 -377 l-5 -23 485 0 485 0 6 108 c16 266
26 554 26 750 0 149 3 211 11 207 6 -4 6 0 -1 11 -7 11 -51 44 -99 74 -47 30
-169 114 -270 187 -102 73 -193 133 -202 133 -10 0 -84 -34 -166 -76z"/>
<path d="M2849 1382 c-104 -83 -252 -189 -384 -274 -96 -62 -129 -82 -293
-170 -39 -22 -70 -44 -67 -48 3 -5 10 -109 16 -232 5 -123 16 -312 24 -420 8
-109 15 -207 15 -218 0 -20 3 -20 630 -20 442 0 630 3 630 11 0 6 -9 50 -20
97 -12 48 -25 106 -31 130 -21 94 -60 300 -84 442 l-24 151 20 82 c13 52 22
131 26 217 l5 135 -78 45 c-169 98 -250 140 -275 140 -17 0 -54 -23 -110 -68z"/>
<path d="M8453 942 c20 -22 22 -42 5 -42 -9 0 -9 -3 0 -12 8 -8 12 -64 12
-187 0 -159 -4 -238 -26 -593 l-7 -108 75 0 76 0 7 232 c3 128 7 325 8 436 l2
204 -84 44 c-49 26 -77 37 -68 26z"/>
<path d="M1943 828 c-29 -15 -44 -30 -47 -47 -25 -126 -36 -507 -21 -698 l7
-83 55 0 55 0 -6 212 c-4 126 -3 287 4 393 13 221 13 217 11 233 -1 16 -8 15
-58 -10z"/>
<path d="M2030 820 c-9 -6 -10 -10 -3 -10 6 0 15 5 18 10 8 12 4 12 -15 0z"/>
<path d="M8770 390 l0 -390 963 1 962 1 -80 20 c-44 11 -224 55 -400 98 -503
124 -620 160 -756 236 -116 65 -205 93 -292 94 -36 0 -39 3 -58 48 -11 26 -34
76 -52 111 l-32 65 -118 53 c-65 29 -123 53 -128 53 -5 0 -9 -160 -9 -390z"/>
<path d="M1665 707 c-11 -7 -58 -26 -105 -43 l-85 -32 -8 -44 c-8 -43 -11 -45
-60 -63 -74 -26 -225 -102 -272 -137 -22 -16 -64 -47 -93 -68 -86 -64 -212
-102 -527 -160 -166 -30 -357 -74 -462 -105 -41 -12 -53 -20 -53 -35 0 -20 12
-20 841 -20 l840 0 -7 57 c-12 92 -8 448 5 556 7 55 11 100 9 102 -2 2 -12 -2
-23 -8z"/>
<path d="M4220 668 c0 -8 6 -34 14 -59 8 -24 36 -125 61 -224 26 -99 60 -225
75 -280 l27 -100 52 -3 c60 -4 61 -1 26 77 -13 31 -74 178 -136 326 -61 149
-113 272 -115 274 -2 2 -4 -2 -4 -11z"/>
<path d="M1831 634 c0 -11 3 -14 6 -6 3 7 2 16 -1 19 -3 4 -6 -2 -5 -13z"/>
<path d="M1841 554 c0 -11 3 -14 6 -6 3 7 2 16 -1 19 -3 4 -6 -2 -5 -13z"/>
</g>
</svg>
